+----------------+---------------+---------------------+
| ISBN           | Title         | Author              |
+----------------+---------------+---------------------+
| 978-0521567817 | De Monarchia  | Dante Alighieri     |
| 978-0804169127 | Divine Comedy | spans multiple rows |
+----------------+---------------+---------------------+

+----------------+---------------+---------------------+
| 978-0521567817 | De Monarchia  | Dante Alighieri     |
| 978-0804169127 | Divine Comedy | spans multiple rows |
+----------------+---------------+---------------------+

